Be Nice on the Web • polite
…
Now that we know how many pages to retrieve from each letter page, let’s rotate over letter pages and retrieve cheese names and underlying links to cheese details. We will need to write a helper function. Our session is still valid and we don’t need to nod again, because we will not be modifying a page URL, only its parameters (note that the field url is missing from scrape function).

get_cheese_page <- function(letter, pages){
 lnks <- scrape(session, query=list(per_page=100,i=letter,page=pages)) %>%
    html_nodes("h3 a")
tibble(name=lnks %>% html_text(),
       link=lnks %>% html_attr("href"))
}

df <- pages_df %>% pmap_df(get_cheese_page)
df
#> # A tibble: 517 x 2
#>    name                      link                     
#>    <chr>                     <chr>                    
#>  1 "Abbaye de Belloc"        /abbaye-de-belloc/       
#>  2 "Abbaye de Belval"        /abbaye-de-belval/       
#>  3 "Abbaye de Citeaux"       /abbaye-de-citeaux/      
#>  4 "Abbaye de Timadeuc"      /abbaye-de-timadeuc/     
#>  5 "Abbaye du Mont des Cats" /abbaye-du-mont-des-cats/
#>  6 "Abbot’s Gold"            /abbots-gold/            
#>  7 "Abertam"                 /abertam/                
#>  8 "Abondance"               /abondance/              
#>  9 "Acapella"                /acapella/               
#> 10 "Accasciato "             /accasciato/             
#> # … with 507 more rows
…
