…
session <- bow("https://www.cheese.com/alphabetical")
#> No encoding supplied: defaulting to UTF-8.
#> No encoding supplied: defaulting to UTF-8.
responses <- map(letters, ~scrape(session, params = paste0("per_page=100&i=",.x)) )
results <- map(responses, ~html_nodes(.x, "#id_page") %>% 
                          html_text() %>% 
                          strsplit("\\s") %>% 
                          unlist() %>%
                          `%||%`(1) %>% 
                          as.numeric() %>% 
                          max(na.rm = TRUE) )
pages_df <- tibble(letter = rep.int(letters, times=unlist(results)),
                   pages = unlist(map(results, ~seq.int(from=1, to=.x))))
pages_df
#> # A tibble: 33 x 2
#>    letter pages
#>    <chr>  <int>
#>  1 a          1
#>  2 b          1
#>  3 b          2
#>  4 c          1
#>  5 c          2
#>  6 c          3
#>  7 d          1
#>  8 e          1
#>  9 f          1
#> 10 g          1
#> # ... with 23 more rows
```
…
``` r
get_cheese_page <- function(letter, pages){
 lnks <- scrape(session, params=paste0("per_page=100&i=",letter,"&page=",pages)) %>% 
    html_nodes("h3 a")
 tibble(name=lnks %>% html_text(),
        link=lnks %>% html_attr("href"))
}

df <- pages_df %>% pmap_df(get_cheese_page)
df
#> # A tibble: 1,830 x 2
#>    name                    link                     
#>    <chr>                   <chr>                    
#>  1 Abbaye de Belloc        /abbaye-de-belloc/       
#>  2 Abbaye de Belval        /abbaye-de-belval/       
#>  3 Abbaye de Citeaux       /abbaye-de-citeaux/      
#>  4 Abbaye de Timadeuc      /abbaye-de-timadeuc/     
#>  5 Abbaye du Mont des Cats /abbaye-du-mont-des-cats/
#>  6 Abbot’s Gold            /abbots-gold/            
#>  7 Abertam                 /abertam/                
#>  8 Abondance               /abondance/              
#>  9 Acapella                /acapella/               
#> 10 "Accasciato "           /accasciato/             
#> # ... with 1,820 more rows
```
…
